Data visualization
…
1. Introduction

The ggplot2 package is one of the most versatile frameworks for data visualization. It implements the grammar of graphics - a system for describing and building graphs by using layers. This package is one of the 8 core-tidyverse packages.

2. First Steps

We first start by loading the tidyverse meta-package:

library(tidyverse)

Then, we can use the mpg tibble, a dataset included in the ggplot2 package. mpg contains observations collected by the US Environmental Protection Agency on 38 models of car.

mpg

# A tibble: 234 x 11
   manufacturer model displ  year   cyl trans drv     cty   hwy fl   
   <chr>        <chr> <dbl> <int> <int> <chr> <chr> <int> <int> <chr>
 1 audi         a4      1.8  1999     4 auto~ f        18    29 p    
 2 audi         a4      1.8  1999     4 manu~ f        21    29 p    
 3 audi         a4      2    2008     4 manu~ f        20    31 p    
 4 audi         a4      2    2008     4 auto~ f        21    30 p    
 5 audi         a4      2.8  1999     6 auto~ f        16    26 p    
 6 audi         a4      2.8  1999     6 manu~ f        18    26 p    
 7 audi         a4      3.1  2008     6 auto~ f        18    27 p    
 8 audi         a4 q~   1.8  1999     4 manu~ 4        18    26 p    
 9 audi         a4 q~   1.8  1999     4 auto~ 4        16    25 p    
10 audi         a4 q~   2    2008     4 manu~ 4        20    28 p    
# ... with 224 more rows, and 1 more variable: class <chr>
…
