5 Data Transformation
…
This chapter is all about data wrangling.

library(tidyverse)
library(tidyquant)
library(nycflights13)

5.2 Filter rows with filter()

filter() allows you to choose rows based on a set of logical conditions.

FANG %>% 
  filter(symbol == "FB")

# A tibble: 1,008 x 8
   symbol date        open  high   low close    volume adjusted
   <chr>  <date>     <dbl> <dbl> <dbl> <dbl>     <dbl>    <dbl>
 1 FB     2013-01-02  27.4  28.2  27.4  28    69846400     28  
 2 FB     2013-01-03  27.9  28.5  27.6  27.8  63140600     27.8
 3 FB     2013-01-04  28.0  28.9  27.8  28.8  72715400     28.8
 4 FB     2013-01-07  28.7  29.8  28.6  29.4  83781800     29.4
 5 FB     2013-01-08  29.5  29.6  28.9  29.1  45871300     29.1
 6 FB     2013-01-09  29.7  30.6  29.5  30.6 104787700     30.6
 7 FB     2013-01-10  30.6  31.5  30.3  31.3  95316400     31.3
 8 FB     2013-01-11  31.3  32.0  31.1  31.7  89598000     31.7
 9 FB     2013-01-14  32.1  32.2  30.6  31.0  98892800     31.0
10 FB     2013-01-15  30.6  31.7  29.9  30.1 173242600     30.1
# ... with 998 more rows
…
near(sqrt(2) ^ 2,  2)

[1] TRUE

near(1 / 49 * 49, 1)

[1] TRUE

5.2.2 Logical operators

FANG %>% 
  filter(symbol == "FB" | symbol == "GOOG")

# A tibble: 2,016 x 8
   symbol date        open  high   low close    volume adjusted
   <chr>  <date>     <dbl> <dbl> <dbl> <dbl>     <dbl>    <dbl>
 1 FB     2013-01-02  27.4  28.2  27.4  28    69846400     28  
 2 FB     2013-01-03  27.9  28.5  27.6  27.8  63140600     27.8
 3 FB     2013-01-04  28.0  28.9  27.8  28.8  72715400     28.8
 4 FB     2013-01-07  28.7  29.8  28.6  29.4  83781800     29.4
 5 FB     2013-01-08  29.5  29.6  28.9  29.1  45871300     29.1
 6 FB     2013-01-09  29.7  30.6  29.5  30.6 104787700     30.6
 7 FB     2013-01-10  30.6  31.5  30.3  31.3  95316400     31.3
 8 FB     2013-01-11  31.3  32.0  31.1  31.7  89598000     31.7
 9 FB     2013-01-14  32.1  32.2  30.6  31.0  98892800     31.0
10 FB     2013-01-15  30.6  31.7  29.9  30.1 173242600     30.1
# ... with 2,006 more rows

We could also use the value matching operator: %in% as in: x %in% y. This will select every row where x is one of the values in y.

FANG %>% 
  filter(symbol %in% c("FB", "GOOG"))

# A tibble: 2,016 x 8
   symbol date        open  high   low close    volume adjusted
   <chr>  <date>     <dbl> <dbl> <dbl> <dbl>     <dbl>    <dbl>
 1 FB     2013-01-02  27.4  28.2  27.4  28    69846400     28  
 2 FB     2013-01-03  27.9  28.5  27.6  27.8  63140600     27.8
 3 FB     2013-01-04  28.0  28.9  27.8  28.8  72715400     28.8
 4 FB     2013-01-07  28.7  29.8  28.6  29.4  83781800     29.4
 5 FB     2013-01-08  29.5  29.6  28.9  29.1  45871300     29.1
 6 FB     2013-01-09  29.7  30.6  29.5  30.6 104787700     30.6
 7 FB     2013-01-10  30.6  31.5  30.3  31.3  95316400     31.3
 8 FB     2013-01-11  31.3  32.0  31.1  31.7  89598000     31.7
 9 FB     2013-01-14  32.1  32.2  30.6  31.0  98892800     31.0
10 FB     2013-01-15  30.6  31.7  29.9  30.1 173242600     30.1
# ... with 2,006 more rows
…
5.2.4 Exercises

Find all flights that:

Had an arrival delay of two or more hours.

flights %>% 
  filter(arr_delay >= 120)

# A tibble: 10,200 x 19
    year month   day dep_time sched_dep_time dep_delay arr_time
   <int> <int> <int>    <int>          <int>     <dbl>    <int>
 1  2013     1     1      811            630       101     1047
 2  2013     1     1      848           1835       853     1001
 3  2013     1     1      957            733       144     1056
 4  2013     1     1     1114            900       134     1447
 5  2013     1     1     1505           1310       115     1638
 6  2013     1     1     1525           1340       105     1831
 7  2013     1     1     1549           1445        64     1912
 8  2013     1     1     1558           1359       119     1718
 9  2013     1     1     1732           1630        62     2028
10  2013     1     1     1803           1620       103     2008
# ... with 10,190 more rows, and 12 more variables:
#   sched_arr_time <int>, arr_delay <dbl>, carrier <chr>,
#   flight <int>, tailnum <chr>, origin <chr>, dest <chr>,
#   air_time <dbl>, distance <dbl>, hour <dbl>, minute <dbl>,
#   time_hour <dttm>

Flew to Houston (IAH or HOU)

flights %>% 
  filter(dest == "IAH" | dest == "HOU")

# A tibble: 9,313 x 19
    year month   day dep_time sched_dep_time dep_delay arr_time
   <int> <int> <int>    <int>          <int>     <dbl>    <int>
 1  2013     1     1      517            515         2      830
 2  2013     1     1      533            529         4      850
 3  2013     1     1      623            627        -4      933
 4  2013     1     1      728            732        -4     1041
 5  2013     1     1      739            739         0     1104
 6  2013     1     1      908            908         0     1228
 7  2013     1     1     1028           1026         2     1350
 8  2013     1     1     1044           1045        -1     1352
 9  2013     1     1     1114            900       134     1447
10  2013     1     1     1205           1200         5     1503
# ... with 9,303 more rows, and 12 more variables:
#   sched_arr_time <int>, arr_delay <dbl>, carrier <chr>,
#   flight <int>, tailnum <chr>, origin <chr>, dest <chr>,
#   air_time <dbl>, distance <dbl>, hour <dbl>, minute <dbl>,
#   time_hour <dttm>

Another options we have is to use the value matching operator %in%

flights %>% 
  filter(dest %in% c("IAH", "HOU"))

# A tibble: 9,313 x 19
    year month   day dep_time sched_dep_time dep_delay arr_time
   <int> <int> <int>    <int>          <int>     <dbl>    <int>
 1  2013     1     1      517            515         2      830
 2  2013     1     1      533            529         4      850
 3  2013     1     1      623            627        -4      933
 4  2013     1     1      728            732        -4     1041
 5  2013     1     1      739            739         0     1104
 6  2013     1     1      908            908         0     1228
 7  2013     1     1     1028           1026         2     1350
 8  2013     1     1     1044           1045        -1     1352
 9  2013     1     1     1114            900       134     1447
10  2013     1     1     1205           1200         5     1503
# ... with 9,303 more rows, and 12 more variables:
#   sched_arr_time <int>, arr_delay <dbl>, carrier <chr>,
#   flight <int>, tailnum <chr>, origin <chr>, dest <chr>,
#   air_time <dbl>, distance <dbl>, hour <dbl>, minute <dbl>,
#   time_hour <dttm>
…
We see that: DL = Delta Air Lines Inc.; UA = United Air Lines Inc.; AA = American Airlines Inc.

flights %>% 
  filter(carrier %in% c("DL", "UA", "AA")) %>% 
  relocate(carrier, .after = year)

# A tibble: 139,504 x 19
    year carrier month   day dep_time sched_dep_time dep_delay
   <int> <chr>   <int> <int>    <int>          <int>     <dbl>
 1  2013 UA          1     1      517            515         2
 2  2013 UA          1     1      533            529         4
 3  2013 AA          1     1      542            540         2
 4  2013 DL          1     1      554            600        -6
 5  2013 UA          1     1      554            558        -4
 6  2013 AA          1     1      558            600        -2
 7  2013 UA          1     1      558            600        -2
 8  2013 UA          1     1      558            600        -2
 9  2013 AA          1     1      559            600        -1
10  2013 UA          1     1      559            600        -1
# ... with 139,494 more rows, and 12 more variables: arr_time <int>,
#   sched_arr_time <int>, arr_delay <dbl>, flight <int>,
#   tailnum <chr>, origin <chr>, dest <chr>, air_time <dbl>,
#   distance <dbl>, hour <dbl>, minute <dbl>, time_hour <dttm>

Departed in summer (July, August, and September).

flights %>% 
  filter(month %in% c(7, 8, 9))

# A tibble: 86,326 x 19
    year month   day dep_time sched_dep_time dep_delay arr_time
   <int> <int> <int>    <int>          <int>     <dbl>    <int>
 1  2013     7     1        1           2029       212      236
 2  2013     7     1        2           2359         3      344
 3  2013     7     1       29           2245       104      151
 4  2013     7     1       43           2130       193      322
 5  2013     7     1       44           2150       174      300
 6  2013     7     1       46           2051       235      304
 7  2013     7     1       48           2001       287      308
 8  2013     7     1       58           2155       183      335
 9  2013     7     1      100           2146       194      327
10  2013     7     1      100           2245       135      337
# ... with 86,316 more rows, and 12 more variables:
#   sched_arr_time <int>, arr_delay <dbl>, carrier <chr>,
#   flight <int>, tailnum <chr>, origin <chr>, dest <chr>,
#   air_time <dbl>, distance <dbl>, hour <dbl>, minute <dbl>,
#   time_hour <dttm>

Arrived more than two hours late, but didnt leave late.

flights %>% 
  filter(dep_delay <= 0, arr_delay >= 120)

# A tibble: 29 x 19
    year month   day dep_time sched_dep_time dep_delay arr_time
   <int> <int> <int>    <int>          <int>     <dbl>    <int>
 1  2013     1    27     1419           1420        -1     1754
 2  2013    10     7     1350           1350         0     1736
 3  2013    10     7     1357           1359        -2     1858
 4  2013    10    16      657            700        -3     1258
 5  2013    11     1      658            700        -2     1329
 6  2013     3    18     1844           1847        -3       39
 7  2013     4    17     1635           1640        -5     2049
 8  2013     4    18      558            600        -2     1149
 9  2013     4    18      655            700        -5     1213
10  2013     5    22     1827           1830        -3     2217
# ... with 19 more rows, and 12 more variables: sched_arr_time <int>,
#   arr_delay <dbl>, carrier <chr>, flight <int>, tailnum <chr>,
#   origin <chr>, dest <chr>, air_time <dbl>, distance <dbl>,
#   hour <dbl>, minute <dbl>, time_hour <dttm>

Were delayed by at least an hour, but made up over 30 minutes in flight

flights %>% 
  filter(dep_delay >= 60, dep_delay - arr_delay > 30)

# A tibble: 1,844 x 19
    year month   day dep_time sched_dep_time dep_delay arr_time
   <int> <int> <int>    <int>          <int>     <dbl>    <int>
 1  2013     1     1     2205           1720       285       46
 2  2013     1     1     2326           2130       116      131
 3  2013     1     3     1503           1221       162     1803
 4  2013     1     3     1839           1700        99     2056
 5  2013     1     3     1850           1745        65     2148
 6  2013     1     3     1941           1759       102     2246
 7  2013     1     3     1950           1845        65     2228
 8  2013     1     3     2015           1915        60     2135
 9  2013     1     3     2257           2000       177       45
10  2013     1     4     1917           1700       137     2135
# ... with 1,834 more rows, and 12 more variables:
#   sched_arr_time <int>, arr_delay <dbl>, carrier <chr>,
#   flight <int>, tailnum <chr>, origin <chr>, dest <chr>,
#   air_time <dbl>, distance <dbl>, hour <dbl>, minute <dbl>,
#   time_hour <dttm>

Departed between midnight and 6am (inclusive)

flights %>% 
  filter(dep_time <= 600 | dep_time == 2400)

# A tibble: 9,373 x 19
    year month   day dep_time sched_dep_time dep_delay arr_time
   <int> <int> <int>    <int>          <int>     <dbl>    <int>
 1  2013     1     1      517            515         2      830
 2  2013     1     1      533            529         4      850
 3  2013     1     1      542            540         2      923
 4  2013     1     1      544            545        -1     1004
 5  2013     1     1      554            600        -6      812
 6  2013     1     1      554            558        -4      740
 7  2013     1     1      555            600        -5      913
 8  2013     1     1      557            600        -3      709
 9  2013     1     1      557            600        -3      838
10  2013     1     1      558            600        -2      753
# ... with 9,363 more rows, and 12 more variables:
#   sched_arr_time <int>, arr_delay <dbl>, carrier <chr>,
#   flight <int>, tailnum <chr>, origin <chr>, dest <chr>,
#   air_time <dbl>, distance <dbl>, hour <dbl>, minute <dbl>,
#   time_hour <dttm>
…
